{
    "$schema": "http://json-schema.org/draft-07/schema#",
    "title": "The Root Schema",
    "description": "The root schema comprises the entire JSON document.",
    "additionalItems": true,
    "type": "object",
    "properties": {
        "id": {
            "$id": "#/items/properties/id",
            "type": "string",
            "title": "The Id Schema",
            "description": "An explanation about the purpose of this instance.",
            "default": "",
            "examples": [
                "301486"
            ]
        },
        "bedrooms": {
            "$id": "#/items/properties/bedrooms",
            "type": ["null", "integer"],
            "title": "The Bedrooms Schema",
            "description": "An explanation about the purpose of this instance.",
            "examples": [
                3
            ]
        },
        "bathrooms": {
            "$id": "#/items/properties/bathrooms",
            "type": ["null", "integer"],
            "title": "The Bathrooms Schema",
            "description": "An explanation about the purpose of this instance.",
            "default": "",
            "examples": [
                2
            ]
        },
        "street_name": {
            "$id": "#/items/properties/street_name",
            "type": ["null", "string"],
            "title": "The Street_name Schema",
            "description": "An explanation about the purpose of this instance.",
            "default": "",
            "examples": [
                "Kringlan"
            ]
        },
        "street_number": {
            "$id": "#/items/properties/street_number",
            "type": ["null", "string"],
            "title": "The Street_number Schema",
            "description": "An explanation about the purpose of this instance.",
            "default": "",
            "examples": [
                "89"
            ]
        },
        "sale_or_rent": {
            "$id": "#/items/properties/sale_or_rent",
            "type": ["null", "integer"],
            "title": "The Sale_or_rent Schema",
            "description": "An explanation about the purpose of this instance.",
            "default": "",
            "examples": [
                1
            ]
        },
        "zip": {
            "$id": "#/items/properties/zip",
            "type": "object",
            "title": "The Zip Schema",
            "description": "An explanation about the purpose of this instance.",
            "default": {},
            "examples": [
                {
                    "zip": "103",
                    "town": "Reykjavík"
                }
            ],
            "additionalProperties": true,
            "required": [
                "zip",
                "town"
            ],
            "properties": {
                "zip": {
                    "$id": "#/items/properties/zip/properties/zip",
                    "type": "string",
                    "title": "The Zip Schema",
                    "description": "An explanation about the purpose of this instance.",
                    "default": "",
                    "examples": [
                        "103"
                    ]
                },
                "town": {
                    "$id": "#/items/properties/zip/properties/town",
                    "type": "string",
                    "title": "The Town Schema",
                    "description": "An explanation about the purpose of this instance.",
                    "default": "",
                    "examples": [
                        "Reykjavík"
                    ]
                }
            }
        },
        "price": {
            "$id": "#/items/properties/price",
            "type": ["null", "integer"],
            "title": "The Price Schema",
            "description": "An explanation about the purpose of this instance.",
            "default": "",
            "examples": [
                87900000
            ]
        },
        "size": {
            "$id": "#/items/properties/size",
            "type": ["null", "number"],
            "title": "The Size Schema",
            "description": "An explanation about the purpose of this instance.",
            "default": "",
            "examples": [
                201
            ]
        },
        "category": {
            "$id": "#/items/properties/category",
            "type": ["null", "string"],
            "title": "The Category Schema",
            "description": "An explanation about the purpose of this instance.",
            "default": "",
            "examples": [
                "Raðhús"
            ]
        },
        "rooms": {
            "$id": "#/items/properties/rooms",
            "type": ["null", "integer"],
            "title": "The Rooms Schema",
            "description": "An explanation about the purpose of this instance.",
            "default": "",
            "examples": [
                6
            ]
        },
        "images_nr": {
            "$id": "#/items/properties/images_nr",
            "type": ["null", "string"],
            "title": "The Images_nr Schema",
            "description": "An explanation about the purpose of this instance.",
            "default": "",
            "examples": [
                "33"
            ]
        },
        "image": {
            "$id": "#/items/properties/image",
            "type": ["null", "string"],
            "title": "The Image Schema",
            "description": "An explanation about the purpose of this instance.",
            "default": "",
            "examples": [
                "http://api-beta.fasteignir.is/pictures/301486/4bbae9aece1674714aa8d6bdd1550fa1-469x310.jpg"
            ]
        },
        "latitude": {
            "$id": "#/items/properties/latitude",
            "type": ["null", "number"],
            "title": "The Latitude Schema",
            "description": "An explanation about the purpose of this instance.",
            "default": "",
            "examples": [
                64.1292333333333
            ]
        },
        "longitude": {
            "$id": "#/items/properties/longitude",
            "type": ["null", "number"],
            "title": "The Longitude Schema",
            "description": "An explanation about the purpose of this instance.",
            "default": "",
            "examples": [
                -21.89335
            ]
        },
        "legit_realestate_agent": {
            "$id": "#/items/properties/legit_realestate_agent",
            "type": ["null", "string"],
            "title": "The Legit_realestate_agent Schema",
            "description": "An explanation about the purpose of this instance.",
            "default": "",
            "examples": [
                "Helgi Jóhannes Jónsson"
            ]
        }
    }
}